Short Term Rentals Registrations
…
# get all resources for this package
resources <- list_package_resources("2ab20f80-3599-486a-8f8a-9cb59117977c")

# identify datastore resources; by default, Toronto Open Data sets datastore resource format to CSV for non-geospatial and GeoJSON for geospatial resources
datastore_resources <- filter(resources, tolower(format) %in% c('csv', 'geojson'))

# load the first datastore resource as a sample
data <- filter(datastore_resources, row_number()==1) %>% get_resource()
data

# A tibble: 6,509 × 5
     `_id` operator_registration_number postal_code ward_number ward_name       
     <int> <chr>                        <chr>       <chr>       <chr>           
 1 1708455 STR-2204-GWPVHH              M4Y         13.0        Toronto Centre  
 2 1708456 STR-2012-FRPHHC              M6H         9.0         Davenport       
 3 1708457 STR-2108-HQPPHK              M4N         15.0        Don Valley West 
 4 1708458 STR-2203-GGMPHF              M5S         13.0        Toronto Centre  
 5 1708459 STR-2009-GFFXPF              M2H         17          Don Valley North
 6 1708460 STR-2207-HLYPHK              M5A         13.0        Toronto Centre  
 7 1708461 STR-2208-JGQBHM              M4X         13.0        Toronto Centre  
 8 1708462 STR-2208-HZWBHM              M8V         3.0         Etobicoke-Lakes…
 9 1708463 STR-2009-FVFXPD              M8Z         03          Etobicoke-Lakes…
10 1708464 STR-2011-FYHDVD              M9C         02          Etobicoke Centre
# … with 6,499 more rows
…
